{
    "swagger": "2.0",
    "info":{
        "version":"1.0.0",
        "title":"Dairy Milk Distributor API",
        "description":"An API for Dairy written in Node.js, Express, and PostgreSQL",
        "license":{
            "name":"MIT"
        }
    },
    "host":"dairy-backend-app.herokuapp.com",
    "basePath":"/",
    "produces":["application/json"],
    "paths":{
        "/orders":{
            "get":{
                "description":"Get all orders",
                "produces":["application/json"],
                "responses":{
                    "200":{
                        "description":"OK"
                    }
                }
            }
        },
        "/orders/:id":{
            "get":{
                "description":"Get an order by id",
                "produces":["application/json"],
                "parameters":[
                    {
                        "name":"id",
                        "in":"path",
                        "description":"ID of the order to retrieve",
                        "required":true
                    }
                ],
                "responses":{
                    "200":{
                        "description":"OK"
                    }
                }
            }
        },
        "/orders/add":{
            "post":{
                "description":"Add an order",
                "produces":["application/json"],
                "parameters":[
                    {
                        "in":"body",
                        "name":"body",
                        "description":"Order to add",
                        "required":true,
                        "schema":{
                            "$ref":"#/definitions/Order"
                        }
                    }
                ],
                "responses":{
                    "200":{
                        "description":"OK"
                    }
                }
            }
        },
        "/orders/update/:id":{
            "put":{
                "description":"Update an order",
                "produces":["application/json"],
                "parameters":[
                    {
                        "in":"path",
                        "name":"id",
                        "description":"ID of order to update",
                        "required":true,
                        "type":"integer"
                    },
                    {
                        "in":"body",
                        "name":"quantity",
                        "description":"Order quantity to update",
                        "required":true,
                        "schema":{
                            "$ref":"#/definitions/Order"
                        }
                    }
                ],
                "responses":{
                    "200":{
                        "description":"OK"
                    }
                }
            }
        },
        "/orders/delete/:id":{
            "delete":{
                "description":"Delete an order",
                "produces":["application/json"],
                "parameters":[
                    {
                        "in":"path",
                        "name":"id",
                        "description":"ID of order to delete",
                        "required":true,
                        "type":"integer"
                    }
                ],
                "responses":{
                    "200":{
                        "description":"OK"
                    }
                }
            }
        },
        "/orders/updateStatus/:id":{
            "put":{
                "description":"Update an order status",
                "produces":["application/json"],
                "parameters":[
                    {
                        "in":"path",
                        "name":"id",
                        "description":"ID of order to update",
                        "required":true,
                        "type":"integer"
                    },
                    {
                        "in":"body",
                        "name":"status",
                        "description":"Order status to update",
                        "required":true,
                        "schema":{
                            "$ref":"#/definitions/Order"
                        }
                    }
                ],
                "responses":{
                    "200":{
                        "description":"OK"
                    }
                }
            }
        },
        "/products/update/:id":{
            "put":{
                "description":"Update product qty",
                "produces":["application/json"],
                "parameters":[
                    {
                        "in":"path",
                        "name":"id",
                        "description":"ID of product to update",
                        "required":true,
                        "type":"integer"
                    },
                    {
                        "in":"body",
                        "name":"stock",
                        "description":"Product stock to update",
                        "required":true,
                        "schema":{
                            "$ref":"#/definitions/Product"
                        }
                    }
                ],
                "responses":{
                    "200":{
                        "description":"OK"
                    }
                }
            }
        },
        "/capacities/checkCapacity/:date":{
            "get":{
                "description":"Check capacity",
                "produces":["application/json"],
                "parameters":[
                    {
                        "in":"path",
                        "name":"date",
                        "description":"Check capacity of product by date",
                        "required":true,
                        "type":"string"
                    }
                ],
                "responses":{
                    "200":{
                        "description":"OK"
                    }
                }
            }
        }
    },
    "definitions":{
        "Order":{
            "type":"object",
            "properties":{
                "orderId":{
                    "type":"integer"
                },
                "productID":{
                    "type":"integer"
                },
                "quantity":{
                    "type":"integer"
                },
                "status":{
                    "type":"string"
                }
            }
        },
        "Product":{
            "type":"object",
            "properties":{
                "productID":{
                    "type":"integer"
                },
                "stock":{
                    "type":"integer"
                },
                "SKU":{
                    "type":"string"
                },
                "name":{
                    "type":"string"
                },
                "price":{
                    "type":"float"
                }
            }
        },
        "Capacity":{
            "type":"object",
            "properties":{
                "id":{
                    "type":"integer"
                },
                "productID":{
                    "type":"integer"
                },
                "date":{
                    "type":"date"
                },
                "quantity":{
                    "type":"integer"
                }
            }
        }
    }
}